[gd_scene load_steps=5 format=2]

[ext_resource path="res://entities/components/platformer/Platformer.gd" type="Script" id=1]
[ext_resource path="res://entities/components/platformer/PhysicsState.tscn" type="PackedScene" id=2]
[ext_resource path="res://entities/components/platformer/Ground.gd" type="Script" id=3]
[ext_resource path="res://entities/components/platformer/Airborne.gd" type="Script" id=4]

[node name="Platformer" type="Node"]

script = ExtResource( 1 )
gravity = 2400.0

[node name="PhysicsState" parent="." index="0" instance=ExtResource( 2 )]

[node name="Ground" type="Node" parent="." index="1"]

script = ExtResource( 3 )
terminal_hor_speed = 200.0
terminal_ver_speed = 1000.0
acceleration = 20.0
deceleration = 60.0
drag = 0.01
up = Vector2( 0, -1 )
priority = 1

[node name="Airborne" type="Node" parent="." index="2"]

script = ExtResource( 4 )
terminal_hor_speed = 150.0
terminal_ver_speed = 1000.0
acceleration = 10.0
deceleration = 30.0
drag = 0.01
up = Vector2( 0, -1 )
priority = 1


